Find out neighborhood stations — nearest_station • jmastats
…
pick_neighbor_stations(140.10, 36.08, 300000)
#> Simple feature collection with 394 features and 5 fields
#> Geometry type: POINT
#> Dimension:     XY
#> Bounding box:  xmin: 136.8167 ymin: 34.07333 xmax: 141.45 ymax: 38.75
#> Geodetic CRS:  WGS 84
#> # A tibble: 394 × 6
#>    area  station_no station_name block_no distance            geometry
#>    <chr>      <int> <chr>        <chr>         [m]         <POINT [°]>
#>  1 茨城       40336 つくば       47646       3432.  (140.125 36.05667)
#>  2 茨城       40341 土浦         0324       10799. (140.2167 36.10333)
#>  3 茨城       40281 下妻         0322       17803. (139.9333 36.16667)
#>  4 茨城       40241 柿岡         1012       18619. (140.1833 36.23333)
#>  5 茨城       40326 坂東         0323       20109.   (139.8833 36.035)
#>  6 茨城       40231 下館         1530       23249. (139.9833 36.26667)
#>  7 茨城       40426 龍ケ崎       1014       23647.    (140.2 35.88333)
#>  8 茨城       40391 江戸崎       0911       24263.    (140.3167 35.95)
#>  9 千葉       45061 我孫子       0376       25591.      (140.11 35.85)
#> 10 茨城       40251 美野里       1013       25867. (140.3167 36.23333)
#> # ℹ 384 more rows
…
