…
pick_neighbor_stations(140.10, 36.08, 300000)
#> Simple feature collection with 393 features and 5 fields
#> Geometry type: POINT
#> Dimension:     XY
#> Bounding box:  xmin: 136.8317 ymin: 34.07333 xmax: 141.465 ymax: 38.75667
#> Geodetic CRS:  WGS 84
#> # A tibble: 393 × 6
#>    area  station_no station_name block_no distance            geometry
#>    <chr>      <int> <chr>        <chr>         [m]         <POINT [°]>
#>  1 茨城       40336 つくば       47646       3432.  (140.125 36.05667)
#>  2 茨城       40341 土浦         0324       11090.   (140.22 36.10333)
#>  3 茨城       40281 下妻         0322       17038.  (139.945 36.16833)
#>  4 茨城       40241 柿岡         1012       18804. (140.1883 36.23333)
#>  5 茨城       40326 坂東         0323       19240.   (139.8933 36.035)
#>  6 茨城       40426 龍ケ崎       1014       23394.    (140.2117 35.89)
#>  7 茨城       40391 江戸崎       0911       23865.      (140.32 35.96)
#>  8 千葉       45061 我孫子       0376       24109.   (140.11 35.86333)
#>  9 茨城       40231 下館         1530       24562. (139.9883 36.28167)
#> 10 茨城       40251 美野里       1013       26674.  (140.325 36.23667)
#> # ℹ 383 more rows
…
