…
#> • `tidal_level_cm` -> `tidal_level_cm...2`
#> • `tidal_level_cm` -> `tidal_level_cm...3`
#> • `tidal_level_cm` -> `tidal_level_cm...4`
#> Warning: [13, 30]: expected no trailing characters, but got '0-7'
#> Warning: [42, 30]: expected no trailing characters, but got '0-5'
#> Warning: [129, 30]: expected no trailing characters, but got '0-2'
#> Warning: [351, 30]: expected no trailing characters, but got '0-6'
#> Warning: [8, 34]: expected no trailing characters, but got '0-1'
#> Warning: [37, 34]: expected no trailing characters, but got '0-3'
#> Warning: [67, 34]: expected no trailing characters, but got '0-7'
#> Warning: [68, 34]: expected no trailing characters, but got '0-8'
#> Warning: [320, 34]: expected no trailing characters, but got '0-3'
#> Warning: [348, 34]: expected no trailing characters, but got '0-7'
#> Warning: [364, 34]: expected no trailing characters, but got '0-1'
#> # A tibble: 366 × 42
#>    hry_00 hry_01 hry_02 hry_03 hry_04 hry_05 hry_06 hry_07 hry_08 hry_09 hry_10
#>      [cm]   [cm]   [cm]   [cm]   [cm]   [cm]   [cm]   [cm]   [cm]   [cm]   [cm]
#>  1     67     48     40     44     61     87    116    141    158    164    159
#>  2     87     68     57     54     62     79    102    125    145    157    159
#>  3    105     89     77     70     71     80     95    113    132    147    155
#>  4    117    107     97     90     86     87     94    105    121    136    148
#>  5    123    121    116    110    104    100     99    103    112    125    139
#>  6    120    128    132    130    125    117    110    106    107    116    129
#>  7    107    126    140    146    145    137    126    115    108    109    119
#>  8     84    113    138    155    161    157    145    129    115    108    110
#>  9     54     90    125    153    170    173    164    147    127    112    106
#> 10     23     59    100    139    168    182    180    165    143    122    107
#> # ℹ 356 more rows
#> # ℹ 31 more variables: hry_11 [cm], hry_12 [cm], hry_13 [cm], hry_14 [cm],
#> #   hry_15 [cm], hry_16 [cm], hry_17 [cm], hry_18 [cm], hry_19 [cm],
#> #   hry_20 [cm], hry_21 [cm], hry_22 [cm], hry_23 [cm], date <date>, stn <chr>,
#> #   low_tide_hm_obs1 <time>, low_tide_level_obs1 [cm],
#> #   high_tide_hm_obs1 <time>, high_tide_level_obs1 [cm],
#> #   low_tide_hm_obs2 <time>, low_tide_level_obs2 [cm], …
…
#> • `tidal_level_cm` -> `tidal_level_cm...1`
#> • `tidal_level_cm` -> `tidal_level_cm...2`
#> • `tidal_level_cm` -> `tidal_level_cm...3`
#> • `tidal_level_cm` -> `tidal_level_cm...4`
#> New names:
#> • `hm` -> `hm...1`
#> • `hm` -> `hm...2`
#> • `hm` -> `hm...3`
#> • `hm` -> `hm...4`
#> New names:
#> • `tidal_level_cm` -> `tidal_level_cm...1`
#> • `tidal_level_cm` -> `tidal_level_cm...2`
#> • `tidal_level_cm` -> `tidal_level_cm...3`
#> • `tidal_level_cm` -> `tidal_level_cm...4`
#> # A tibble: 29 × 42
#>    hry_00 hry_01 hry_02 hry_03 hry_04 hry_05 hry_06 hry_07 hry_08 hry_09 hry_10
#>      [cm]   [cm]   [cm]   [cm]   [cm]   [cm]   [cm]   [cm]   [cm]   [cm]   [cm]
#>  1    176    156    143    143    153    172    194    214    229    237    236
#>  2    195    180    166    160    162    172    188    204    219    230    232
#>  3    197    190    181    174    173    179    191    204    216    224    228
#>  4    204    206    204    201    197    194    194    196    203    211    218
#>  5    197    212    220    223    221    217    212    210    210    215    223
#>  6    172    196    213    222    225    221    211    199    188    182    183
#>  7    130    164    197    222    235    234    224    208    192    180    176
#>  8    112    148    187    224    251    262    258    241    217    196    182
#>  9     87    120    162    204    240    261    264    250    223    194    172
#> 10     69     93    134    183    229    263    279    276    256    226    195
#> # ℹ 19 more rows
#> # ℹ 31 more variables: hry_11 [cm], hry_12 [cm], hry_13 [cm], hry_14 [cm],
#> #   hry_15 [cm], hry_16 [cm], hry_17 [cm], hry_18 [cm], hry_19 [cm],
#> #   hry_20 [cm], hry_21 [cm], hry_22 [cm], hry_23 [cm], date <date>, stn <chr>,
#> #   low_tide_hm_obs1 <time>, low_tide_level_obs1 [cm],
#> #   high_tide_hm_obs1 <time>, high_tide_level_obs1 [cm],
#> #   low_tide_hm_obs2 <time>, low_tide_level_obs2 [cm], …
…
